{"success":true,"data":{"list":[{"no":"1","summary":"Summary of row 001","subject":"Subject 001","debit":36.97,"credit":43.79},{"no":"2","summary":"Summary of row 002","subject":"Subject 002","debit":68.84,"credit":14.4},{"no":"3","summary":"Summary of row 003","subject":"Subject 003","debit":9.76,"credit":35.49},{"no":"4","summary":"Summary of row 004","subject":"Subject 004","debit":10.21,"credit":89.03},{"no":"5","summary":"Summary of row 005","subject":"Subject 005","debit":49.67,"credit":43.81},{"no":"6","summary":"Summary of row 006","subject":"Subject 006","debit":83.3,"credit":61.57},{"no":"7","summary":"Summary of row 007","subject":"Subject 007","debit":71.36,"credit":68.53},{"no":"8","summary":"Summary of row 008","subject":"Subject 008","debit":16.99,"credit":31.02},{"no":"9","summary":"Summary of row 009","subject":"Subject 009","debit":42.34,"credit":63.42},{"no":"10","summary":"Summary of row 010","subject":"Subject 010","debit":20.14,"credit":13.64},{"no":"11","summary":"Summary of row 011","subject":"Subject 011","debit":0.71,"credit":11.22},{"no":"12","summary":"Summary of row 012","subject":"Subject 012","debit":70.57,"credit":87.67},{"no":"13","summary":"Summary of row 013","subject":"Subject 013","debit":43.04,"credit":36.28},{"no":"14","summary":"Summary of row 014","subject":"Subject 014","debit":41.54,"credit":53.02},{"no":"15","summary":"Summary of row 015","subject":"Subject 015","debit":53.59,"credit":11.01},{"no":"16","summary":"Summary of row 016","subject":"Subject 016","debit":66.74,"credit":27.84},{"no":"17","summary":"Summary of row 017","subject":"Subject 017","debit":91.37,"credit":23.96},{"no":"18","summary":"Summary of row 018","subject":"Subject 018","debit":63.51,"credit":85.46},{"no":"19","summary":"Summary of row 019","subject":"Subject 019","debit":13.36,"credit":13.12},{"no":"20","summary":"Summary of row 020","subject":"Subject 020","debit":50.66,"credit":71.1},{"no":"21","summary":"Summary of row 021","subject":"Subject 021","debit":14.29,"credit":45.57},{"no":"22","summary":"Summary of row 022","subject":"Subject 022","debit":62.07,"credit":29.86},{"no":"23","summary":"Summary of row 023","subject":"Subject 023","debit":27.16,"credit":62.58},{"no":"24","summary":"Summary of row 024","subject":"Subject 024","debit":12.21,"credit":58.75},{"no":"25","summary":"Summary of row 025","subject":"Subject 025","debit":90.64,"credit":68.69},{"no":"26","summary":"Summary of row 026","subject":"Subject 026","debit":9.01,"credit":85.96},{"no":"27","summary":"Summary of row 027","subject":"Subject 027","debit":22.4,"credit":1.66},{"no":"28","summary":"Summary of row 028","subject":"Subject 028","debit":35.6,"credit":51.99},{"no":"29","summary":"Summary of row 029","subject":"Subject 029","debit":42.92,"credit":23.87},{"no":"30","summary":"Summary of row 030","subject":"Subject 030","debit":43.08,"credit":61.6},{"no":"31","summary":"Summary of row 031","subject":"Subject 031","debit":99.67,"credit":43.87},{"no":"32","summary":"Summary of row 032","subject":"Subject 032","debit":69.71,"credit":30.78},{"no":"33","summary":"Summary of row 033","subject":"Subject 033","debit":78.48,"credit":97.72},{"no":"34","summary":"Summary of row 034","subject":"Subject 034","debit":9.96,"credit":41.27},{"no":"35","summary":"Summary of row 035","subject":"Subject 035","debit":74.63,"credit":62.21},{"no":"36","summary":"Summary of row 036","subject":"Subject 036","debit":2.04,"credit":79.14},{"no":"37","summary":"Summary of row 037","subject":"Subject 037","debit":54.4,"credit":95.08},{"no":"38","summary":"Summary of row 038","subject":"Subject 038","debit":57.35,"credit":92.12},{"no":"39","summary":"Summary of row 039","subject":"Subject 039","debit":46.63,"credit":38.42},{"no":"40","summary":"Summary of row 040","subject":"Subject 040","debit":36.16,"credit":84.69},{"no":"41","summary":"Summary of row 041","subject":"Subject 041","debit":88.29,"credit":94.7},{"no":"42","summary":"Summary of row 042","subject":"Subject 042","debit":28.94,"credit":68.12},{"no":"43","summary":"Summary of row 043","subject":"Subject 043","debit":88.06,"credit":14.1},{"no":"44","summary":"Summary of row 044","subject":"Subject 044","debit":72.47,"credit":77.54},{"no":"45","summary":"Summary of row 045","subject":"Subject 045","debit":64.72,"credit":74.55},{"no":"46","summary":"Summary of row 046","subject":"Subject 046","debit":33.65,"credit":1.03},{"no":"47","summary":"Summary of row 047","subject":"Subject 047","debit":75.7,"credit":88.13},{"no":"48","summary":"Summary of row 048","subject":"Subject 048","debit":49.73,"credit":81.07},{"no":"49","summary":"Summary of row 049","subject":"Subject 049","debit":4.64,"credit":66.17},{"no":"50","summary":"Summary of row 050","subject":"Subject 050","debit":2.18,"credit":97.2}],"pageNo":1,"pageSize":50,"pageCount":4,"total":156}}